<?xml version="1.0" encoding="UTF-8" standalone="no"?>
<!-- Created with Inkscape (http://www.inkscape.org/) -->

<svg
   xmlns:dc="http://purl.org/dc/elements/1.1/"
   xmlns:cc="http://creativecommons.org/ns#"
   xmlns:rdf="http://www.w3.org/1999/02/22-rdf-syntax-ns#"
   xmlns:svg="http://www.w3.org/2000/svg"
   xmlns="http://www.w3.org/2000/svg"
   xmlns:xlink="http://www.w3.org/1999/xlink"
   xmlns:sodipodi="http://sodipodi.sourceforge.net/DTD/sodipodi-0.dtd"
   xmlns:inkscape="http://www.inkscape.org/namespaces/inkscape"
   id="svg2"
   version="1.1"
   inkscape:version="0.48.4 r9939"
   width="168.51006"
   height="259.76938"
   sodipodi:docname="P2451-3.svg">
  <metadata
     id="metadata8">
    <rdf:RDF>
      <cc:Work
         rdf:about="">
        <dc:format>image/svg+xml</dc:format>
        <dc:type
           rdf:resource="http://purl.org/dc/dcmitype/StillImage" />
        <dc:title />
      </cc:Work>
    </rdf:RDF>
  </metadata>
  <defs
     id="defs6">
    <linearGradient
       y2="595.4682"
       x2="413.48505"
       y1="699.50507"
       x1="515.71649"
       gradientTransform="matrix(0.75984429,0.65010511,-0.65010511,0.75984429,-84.80761,-588.9317)"
       gradientUnits="userSpaceOnUse"
       id="linearGradient3851"
       xlink:href="#linearGradient3183"
       inkscape:collect="always" />
    <linearGradient
       id="linearGradient3183">
      <stop
         id="stop3185"
         offset="0"
         style="stop-color:#ffffff;stop-opacity:0;" />
      <stop
         style="stop-color:#65c734;stop-opacity:0.63025212;"
         offset="0.66223609"
         id="stop3191" />
      <stop
         id="stop3187"
         offset="1"
         style="stop-color:#ddffcd;stop-opacity:1;" />
    </linearGradient>
    <linearGradient
       inkscape:collect="always"
       xlink:href="#linearGradient3183"
       id="linearGradient4899"
       gradientUnits="userSpaceOnUse"
       gradientTransform="matrix(0.75984429,0.65010511,-0.65010511,0.75984429,-84.80761,-588.9317)"
       x1="515.71649"
       y1="699.50507"
       x2="413.48505"
       y2="595.4682" />
    <linearGradient
       id="linearGradient4923">
      <stop
         id="stop4925"
         offset="0"
         style="stop-color:#ffffff;stop-opacity:0;" />
      <stop
         style="stop-color:#65c734;stop-opacity:0.63025212;"
         offset="0.66223609"
         id="stop4927" />
      <stop
         id="stop4929"
         offset="1"
         style="stop-color:#ddffcd;stop-opacity:1;" />
    </linearGradient>
    <linearGradient
       inkscape:collect="always"
       xlink:href="#linearGradient3183"
       id="linearGradient3068"
       gradientUnits="userSpaceOnUse"
       gradientTransform="matrix(0.75984429,0.65010511,-0.65010511,0.75984429,-84.80761,-588.9317)"
       x1="515.71649"
       y1="699.50507"
       x2="413.48505"
       y2="595.4682" />
  </defs>
  <sodipodi:namedview
     pagecolor="#ffffff"
     bordercolor="#666666"
     borderopacity="1"
     objecttolerance="10"
     gridtolerance="10"
     guidetolerance="10"
     inkscape:pageopacity="0"
     inkscape:pageshadow="2"
     inkscape:window-width="1366"
     inkscape:window-height="706"
     id="namedview4"
     showgrid="false"
     inkscape:zoom="1.6388888"
     inkscape:cx="-78.334658"
     inkscape:cy="219.57828"
     inkscape:window-x="-8"
     inkscape:window-y="-8"
     inkscape:window-maximized="1"
     inkscape:current-layer="svg2"
     fit-margin-top="0"
     fit-margin-left="0"
     fit-margin-right="0"
     fit-margin-bottom="0" />
  <path
     sodipodi:nodetypes="cssc"
     inkscape:connector-curvature="0"
     id="path3005"
     d="m 90.267523,67.986481 c 0,0 43.260157,22.75445 42.732597,49.948789 -0.52756,27.19433 -25.32301,49.94878 -35.874273,71.03826 -10.551264,21.08949 -8.968574,67.70835 -8.968574,67.70835"
     style="fill:none;stroke:#00aa00;stroke-width:6.17500019;stroke-linecap:butt;stroke-linejoin:miter;stroke-miterlimit:4;stroke-opacity:1;stroke-dasharray:none" />
  <path
     style="fill:#f7548e;fill-opacity:1;stroke:#b3348e;stroke-width:1px;stroke-linecap:butt;stroke-linejoin:miter;stroke-opacity:1"
     d="m 91.157271,61.189573 c 0,0 58.857789,-1.030249 62.374859,31.581938 3.30049,30.603969 -24.30034,38.814019 -39.72767,26.896769 C 90.345269,101.54662 91.157271,61.189573 91.157271,61.189573 z"
     id="path3052"
     inkscape:connector-curvature="0"
     sodipodi:nodetypes="cssc" />
  <path
     sodipodi:nodetypes="cc"
     inkscape:connector-curvature="0"
     id="path4905"
     d="m 94.381867,192.97774 c 5.20773,-17.39372 -6.045345,-25.68087 -6.045345,-25.68087"
     style="fill:none;stroke:#00aa00;stroke-width:3.29999995;stroke-linecap:butt;stroke-linejoin:miter;stroke-miterlimit:4;stroke-opacity:1;stroke-dasharray:none" />
  <path
     style="fill:none;stroke:#00aa00;stroke-width:3.29999995;stroke-linecap:butt;stroke-linejoin:miter;stroke-miterlimit:4;stroke-opacity:1;stroke-dasharray:none"
     d="M 93.112157,203.0038 C 103.31411,186.7199 117.58704,188.97611 117.58704,188.97611"
     id="path4903"
     inkscape:connector-curvature="0"
     sodipodi:nodetypes="cc" />
  <path
     sodipodi:nodetypes="cssc"
     inkscape:connector-curvature="0"
     id="path2995"
     d="m 86.088166,70.596974 c 0,0 -6.34006,-68.6675926 44.743014,-69.0163596 C 161.6119,1.3704564 161.18102,42.88369 148.15502,57.387035 128.34737,79.441159 86.088166,70.596974 86.088166,70.596974 z"
     style="fill:#f7548e;fill-opacity:1;stroke:#b3348e;stroke-width:1px;stroke-linecap:butt;stroke-linejoin:miter;stroke-opacity:1" />
  <path
     sodipodi:nodetypes="csssc"
     inkscape:connector-curvature="0"
     id="path2997"
     d="m 88.174093,67.444011 c 0,0 12.498567,-40.13046 -7.21388,-58.2658996 -13.87283,-12.7629999 -35.96178,-9.26843998 -41.61849,-3.32948 -13.03493,13.6853196 -8.87862,32.7398896 1.10982,39.3988496 15.88732,10.59154 47.72255,22.19653 47.72255,22.19653 z"
     style="fill:#f7548e;fill-opacity:1;stroke:#b3348e;stroke-width:1px;stroke-linecap:butt;stroke-linejoin:miter;stroke-opacity:1" />
  <path
     sodipodi:nodetypes="csssc"
     inkscape:connector-curvature="0"
     id="path3001"
     d="m 89.523349,70.289337 c 0,0 25.256741,33.041383 17.729521,53.930013 -7.527213,20.88863 -25.743431,23.33145 -44.218742,9.59798 C 44.558819,120.08385 46.795293,107.36818 51.252771,98.275811 59.194996,82.075247 89.523349,70.289337 89.523349,70.289337 z"
     style="fill:#f7548e;fill-opacity:1;stroke:#b3348e;stroke-width:1px;stroke-linecap:butt;stroke-linejoin:miter;stroke-opacity:1"
     inkscape:transform-center-x="-19.525424"
     inkscape:transform-center-y="-7.3220339" />
  <path
     inkscape:connector-curvature="0"
     id="path2999"
     d="m 89.905529,71.695316 c 0,0 -38.308676,-30.510688 -66.242462,-22.374368 C -4.2707176,57.457265 -2.8053477,86.06641 6.6368953,94.527081 16.079138,102.98774 29.755206,105.8499 49.973574,96.279011 70.191935,86.70811 89.905529,71.695316 89.905529,71.695316 z"
     style="fill:#f7548e;fill-opacity:1;stroke:#b3348e;stroke-width:1px;stroke-linecap:butt;stroke-linejoin:miter;stroke-opacity:1" />
  <path
     sodipodi:nodetypes="sssss"
     inkscape:connector-curvature="0"
     id="path3003"
     d="m 101.49202,59.675221 c -0.96174,-1.65543 -9.433533,-7.76878 -19.976887,-1.66474 -10.54336,6.10405 -11.09827,16.6474 -6.65896,21.08671 4.4393,4.439296 13.08638,9.87999 22.504534,0.98507 7.491323,-7.07515 6.952713,-15.55057 4.131313,-20.40704 z"
     style="fill:#ffff00;fill-opacity:1;stroke:#d99400;stroke-width:1px;stroke-linecap:butt;stroke-linejoin:miter;stroke-opacity:1" />
  <g
     transform="matrix(0.25326548,0,0,0.25326548,178.079,139.30647)"
     id="g3830">
    <g
       id="g2391"
       transform="matrix(0.75984429,0.65010511,-0.65010511,0.75984429,-79.983431,-566.0034)"
       style="fill:#339900;stroke:none">
      <path
         sodipodi:nodetypes="ccc"
         id="path2383"
         d="m 508.57143,529.50504 c -27.27828,67.01925 5.54649,176.46419 -140,160 -89.29155,-103.45661 111.06089,-76.94898 140,-160 z"
         style="fill:#339900;fill-rule:evenodd;stroke:none"
         inkscape:connector-curvature="0" />
    </g>
    <path
       style="fill:url(#linearGradient4899);fill-opacity:1;fill-rule:evenodd;stroke:none"
       d="M -243.76288,195.65985 C -80.970875,182.80281 -63.647545,179.61469 -63.647545,179.61469 -146.68313,187.04205 -234.14656,89.656321 -243.76288,195.65985 z"
       id="path3165"
       sodipodi:nodetypes="ccc"
       inkscape:connector-curvature="0" />
    <path
       style="fill:none;stroke:#007800;stroke-width:2.5;stroke-linecap:round;stroke-linejoin:miter;stroke-miterlimit:4;stroke-opacity:1;stroke-dasharray:none;stroke-dashoffset:0"
       d="m -244.22407,197.83081 c 46.03753,-10.88133 102.22578,-9.89204 147.844368,-14.70739 21.799456,-2.30109 29.161151,-0.0529 43.371561,-8.70814"
       id="path2409"
       sodipodi:nodetypes="csc"
       inkscape:connector-curvature="0" />
    <path
       style="fill:none;stroke:#006100;stroke-width:3.60000014;stroke-linecap:round;stroke-linejoin:round;stroke-miterlimit:4;stroke-opacity:1;stroke-dasharray:none"
       d="m -246.93799,197.17348 c 25.44209,17.62139 34.50969,47.89066 84.44585,45.11332 50.97688,-2.83522 101.803851,-65.10806 103.413119,-64.39384"
       id="path3959"
       sodipodi:nodetypes="csc"
       inkscape:connector-curvature="0" />
  </g>
  <g
     id="g3839"
     transform="matrix(-0.23477107,-0.095005,-0.095005,0.23477107,50.131689,98.929381)">
    <g
       style="fill:#339900;stroke:none"
       transform="matrix(0.75984429,0.65010511,-0.65010511,0.75984429,-79.983431,-566.0034)"
       id="g3841">
      <path
         inkscape:connector-curvature="0"
         style="fill:#339900;fill-rule:evenodd;stroke:none"
         d="m 508.57143,529.50504 c -27.27828,67.01925 5.54649,176.46419 -140,160 -89.29155,-103.45661 111.06089,-76.94898 140,-160 z"
         id="path3843"
         sodipodi:nodetypes="ccc" />
    </g>
    <path
       inkscape:connector-curvature="0"
       sodipodi:nodetypes="ccc"
       id="path3845"
       d="M -243.76288,195.65985 C -80.970875,182.80281 -63.647545,179.61469 -63.647545,179.61469 -146.68313,187.04205 -234.14656,89.656321 -243.76288,195.65985 z"
       style="fill:url(#linearGradient3851);fill-opacity:1;fill-rule:evenodd;stroke:none" />
    <path
       inkscape:connector-curvature="0"
       sodipodi:nodetypes="csc"
       id="path3847"
       d="m -244.22407,197.83081 c 46.03753,-10.88133 102.22578,-9.89204 147.844368,-14.70739 21.799456,-2.30109 29.161151,-0.0529 43.371561,-8.70814"
       style="fill:none;stroke:#007800;stroke-width:2.5;stroke-linecap:round;stroke-linejoin:miter;stroke-miterlimit:4;stroke-opacity:1;stroke-dasharray:none;stroke-dashoffset:0" />
    <path
       inkscape:connector-curvature="0"
       sodipodi:nodetypes="csc"
       id="path3849"
       d="m -246.93799,197.17348 c 25.44209,17.62139 34.50969,47.89066 84.44585,45.11332 50.97688,-2.83522 101.803851,-65.10806 103.413119,-64.39384"
       style="fill:none;stroke:#006100;stroke-width:3.60000014;stroke-linecap:round;stroke-linejoin:round;stroke-miterlimit:4;stroke-opacity:1;stroke-dasharray:none" />
  </g>
  <path
     style="fill:none;stroke:#00aa00;stroke-width:3.29999995;stroke-linecap:butt;stroke-linejoin:miter;stroke-miterlimit:4;stroke-opacity:1;stroke-dasharray:none"
     d="M 87.944425,238.34864 C 93.152157,220.95492 74.400962,220.59735 74.400962,220.59735"
     id="path3054"
     inkscape:connector-curvature="0"
     sodipodi:nodetypes="cc" />
  <g
     transform="matrix(-0.24689207,-0.0564598,-0.0564598,0.24689207,25.738912,158.5841)"
     id="g3056">
    <g
       id="g3058"
       transform="matrix(0.75984429,0.65010511,-0.65010511,0.75984429,-79.983431,-566.0034)"
       style="fill:#339900;stroke:none">
      <path
         sodipodi:nodetypes="ccc"
         id="path3060"
         d="m 508.57143,529.50504 c -27.27828,67.01925 5.54649,176.46419 -140,160 -89.29155,-103.45661 111.06089,-76.94898 140,-160 z"
         style="fill:#339900;fill-rule:evenodd;stroke:none"
         inkscape:connector-curvature="0" />
    </g>
    <path
       style="fill:url(#linearGradient3068);fill-opacity:1;fill-rule:evenodd;stroke:none"
       d="M -243.76288,195.65985 C -80.970875,182.80281 -63.647545,179.61469 -63.647545,179.61469 -146.68313,187.04205 -234.14656,89.656321 -243.76288,195.65985 z"
       id="path3062"
       sodipodi:nodetypes="ccc"
       inkscape:connector-curvature="0" />
    <path
       style="fill:none;stroke:#007800;stroke-width:2.5;stroke-linecap:round;stroke-linejoin:miter;stroke-miterlimit:4;stroke-opacity:1;stroke-dasharray:none;stroke-dashoffset:0"
       d="m -244.22407,197.83081 c 46.03753,-10.88133 102.22578,-9.89204 147.844368,-14.70739 21.799456,-2.30109 29.161151,-0.0529 43.371561,-8.70814"
       id="path3064"
       sodipodi:nodetypes="csc"
       inkscape:connector-curvature="0" />
    <path
       style="fill:none;stroke:#006100;stroke-width:3.60000014;stroke-linecap:round;stroke-linejoin:round;stroke-miterlimit:4;stroke-opacity:1;stroke-dasharray:none"
       d="m -246.93799,197.17348 c 25.44209,17.62139 34.50969,47.89066 84.44585,45.11332 50.97688,-2.83522 101.803851,-65.10806 103.413119,-64.39384"
       id="path3066"
       sodipodi:nodetypes="csc"
       inkscape:connector-curvature="0" />
  </g>
</svg>
